{
  "collection": "@nestjs/schematics",
  "sourceRoot": "apps/main-api/src",
  "monorepo": true,
  "root": "apps/main-api",
  "compilerOptions": {
    "assets": [
      "public"
    ],
    "plugins": [
      {
        "name": "@nestjs/swagger",
        "options": {
          "classValidatorShim": true,
          "dtoFileNameSuffix": [
            ".dto.ts",
            ".entity.ts",
            ".response.ts",
            "Request.ts",
            "Response.ts",
            "Error.ts"
          ],
          "introspectComments": true
        }
      }
    ],
    "webpackConfigPath": "webpack.config.js",
    "webpack": true,
    "tsConfigPath": "apps/main-api/tsconfig.app.json"
  },
  "projects": {
    "main-api": {
      "type": "application",
      "root": "apps/main-api",
      "entryFile": "main",
      "sourceRoot": "apps/main-api/src",
      "compilerOptions": {
        "tsConfigPath": "apps/main-api/tsconfig.app.json"
      }
    },
    "migrations": {
      "type": "library",
      "root": "libs/migrations",
      "entryFile": "index",
      "sourceRoot": "libs/migrations/src",
      "compilerOptions": {
        "tsConfigPath": "libs/migrations/tsconfig.lib.json"
      }
    },
    "entity-service": {
      "type": "library",
      "root": "libs/entity-service",
      "entryFile": "index",
      "sourceRoot": "libs/entity-service/src",
      "compilerOptions": {
        "tsConfigPath": "libs/entity-service/tsconfig.lib.json"
      }
    },
    "common": {
      "type": "library",
      "root": "libs/common",
      "entryFile": "index",
      "sourceRoot": "libs/common/src",
      "compilerOptions": {
        "tsConfigPath": "libs/common/tsconfig.lib.json"
      }
    }
  }
}